{
  "fileFormatVersion": 1,
  "clientSchemaVersion": 1,
  "serverSchemaVersion": 3,
  "publishedDefaultPageName": "Users",
  "unpublishedDefaultPageName": "Users",
  "invisibleActionFields": {
    "Users_DeleteQuery": {
      "unpublishedUserSetOnLoad": false,
      "publishedUserSetOnLoad": false
    },
    "Users_InsertQuery": {
      "unpublishedUserSetOnLoad": false,
      "publishedUserSetOnLoad": false
    },
    "Users_SelectQuery": {
      "unpublishedUserSetOnLoad": true,
      "publishedUserSetOnLoad": true
    },
    "Users_UpdateQuery": {
      "unpublishedUserSetOnLoad": false,
      "publishedUserSetOnLoad": false
    }
  },
  "editModeTheme": {
    "name": "Classic",
    "displayName": "Classic",
    "isSystemTheme": true,
    "deleted": false
  },
  "publishedTheme": {
    "name": "Classic",
    "displayName": "Classic",
    "isSystemTheme": true,
    "deleted": false
  },
  "publishedLayoutmongoEscapedWidgets": {},
  "unpublishedLayoutmongoEscapedWidgets": {}
}